C:\Users\ichra\Desktop\test\timesheet\src\test\java\tn\esprit\spring\TimesheetApplicationTests.java
C:\Users\ichra\Desktop\test\timesheet\src\test\java\tn\esprit\spring\JunitTest.java
C:\Users\ichra\Desktop\test\timesheet\src\test\java\tn\esprit\spring\jenkins.java
C:\Users\ichra\Desktop\test\timesheet\src\test\java\tn\esprit\spring\TestBuild.java
C:\Users\ichra\Desktop\test\timesheet\src\test\java\tn\esprit\spring\Calcul.java
